module bx-api

go 1.22.0

require github.com/valyala/fasthttp v1.52.0

require (
	github.com/andybalholm/brotli v1.1.0 // indirect
	github.com/klauspost/compress v1.17.6 // indirect
	github.com/valyala/bytebufferpool v1.0.0 // indirect
)
